^D:\VISUALSTUDIO2017PROJECTS\GAME\GAME\DEBUG\ANIMATION.OBJ|D:\VISUALSTUDIO2017PROJECTS\GAME\GAME\DEBUG\BFF_FONT.OBJ|D:\VISUALSTUDIO2017PROJECTS\GAME\GAME\DEBUG\CONSOLE.OBJ|D:\VISUALSTUDIO2017PROJECTS\GAME\GAME\DEBUG\DROPITEM.OBJ|D:\VISUALSTUDIO2017PROJECTS\GAME\GAME\DEBUG\ENGINE.OBJ|D:\VISUALSTUDIO2017PROJECTS\GAME\GAME\DEBUG\GAME.OBJ|D:\VISUALSTUDIO2017PROJECTS\GAME\GAME\DEBUG\GAMEOBJECT.OBJ|D:\VISUALSTUDIO2017PROJECTS\GAME\GAME\DEBUG\GUIBUTTON.OBJ|D:\VISUALSTUDIO2017PROJECTS\GAME\GAME\DEBUG\GUIEDITBOX.OBJ|D:\VISUALSTUDIO2017PROJECTS\GAME\GAME\DEBUG\GUIEDITOR.OBJ|D:\VISUALSTUDIO2017PROJECTS\GAME\GAME\DEBUG\GUIFACTORY.OBJ|D:\VISUALSTUDIO2017PROJECTS\GAME\GAME\DEBUG\GUIFILEDIALOG.OBJ|D:\VISUALSTUDIO2017PROJECTS\GAME\GAME\DEBUG\GUIINPUT.OBJ|D:\VISUALSTUDIO2017PROJECTS\GAME\GAME\DEBUG\GUILAYOUT.OBJ|D:\VISUALSTUDIO2017PROJECTS\GAME\GAME\DEBUG\GUILAYOUTFACTORY.OBJ|D:\VISUALSTUDIO2017PROJECTS\GAME\GAME\DEBUG\GUIMANAGER.OBJ|D:\VISUALSTUDIO2017PROJECTS\GAME\GAME\DEBUG\GUIREFBUTTON.OBJ|D:\VISUALSTUDIO2017PROJECTS\GAME\GAME\DEBUG\GUIRENDERER.OBJ|D:\VISUALSTUDIO2017PROJECTS\GAME\GAME\DEBUG\GUIRENDERERSDL.OBJ|D:\VISUALSTUDIO2017PROJECTS\GAME\GAME\DEBUG\GUISCROLLBAR.OBJ|D:\VISUALSTUDIO2017PROJECTS\GAME\GAME\DEBUG\GUISHOPDIALOG.OBJ|D:\VISUALSTUDIO2017PROJECTS\GAME\GAME\DEBUG\GUITEXT.OBJ|D:\VISUALSTUDIO2017PROJECTS\GAME\GAME\DEBUG\GUITREEVIEW.OBJ|D:\VISUALSTUDIO2017PROJECTS\GAME\GAME\DEBUG\GUITREEVIEWLAYOUT.OBJ|D:\VISUALSTUDIO2017PROJECTS\GAME\GAME\DEBUG\GUITREEVIEWNODE.OBJ|D:\VISUALSTUDIO2017PROJECTS\GAME\GAME\DEBUG\GUIWINDOW.OBJ|D:\VISUALSTUDIO2017PROJECTS\GAME\GAME\DEBUG\ITEM.OBJ|D:\VISUALSTUDIO2017PROJECTS\GAME\GAME\DEBUG\MAIN.OBJ|D:\VISUALSTUDIO2017PROJECTS\GAME\GAME\DEBUG\MAP.OBJ|D:\VISUALSTUDIO2017PROJECTS\GAME\GAME\DEBUG\NPC.OBJ|D:\VISUALSTUDIO2017PROJECTS\GAME\GAME\DEBUG\NPCINSTANCE.OBJ|D:\VISUALSTUDIO2017PROJECTS\GAME\GAME\DEBUG\OBJECTMANAGER.OBJ|D:\VISUALSTUDIO2017PROJECTS\GAME\GAME\DEBUG\PLAYER.OBJ|D:\VISUALSTUDIO2017PROJECTS\GAME\GAME\DEBUG\RACE.OBJ|D:\VISUALSTUDIO2017PROJECTS\GAME\GAME\DEBUG\SKILL.OBJ|D:\VISUALSTUDIO2017PROJECTS\GAME\GAME\DEBUG\SKILLINSTANCE.OBJ|D:\VISUALSTUDIO2017PROJECTS\GAME\GAME\DEBUG\STATISTICS.OBJ|D:\VISUALSTUDIO2017PROJECTS\GAME\GAME\DEBUG\TARGET.OBJ|D:\VISUALSTUDIO2017PROJECTS\GAME\GAME\DEBUG\TEXTURE.OBJ
D:\VISUALSTUDIO2017PROJECTS\GAME\DEBUG\GAME.EXE
D:\VISUALSTUDIO2017PROJECTS\GAME\DEBUG\GAME.ILK
D:\VISUALSTUDIO2017PROJECTS\GAME\DEBUG\GAME.PDB
